<?xml version="1.0" standalone="no"?>
<!DOCTYPE svg PUBLIC "-//W3C//DTD SVG 1.1//EN" "http://www.w3.org/Graphics/SVG/1.1/DTD/svg11.dtd">
<!--Generator: Xara Xtreme (www.xara.com), SVG filter version: 1.0.0.13-->
<svg stroke-width="0.501" stroke-linejoin="bevel" fill-rule="evenodd" xmlns:xlink="http://www.w3.org/1999/xlink" xmlns="http://www.w3.org/2000/svg" version="1.1" overflow="visible" width="996.75pt" height="933.75pt" viewBox="0 0 996.75 933.75">
 <defs>
  <marker id="DefaultArrow2" markerUnits="strokeWidth" viewBox="0 0 1 1" markerWidth="1" markerHeight="1" overflow="visible" orient="auto">
   <!-- REF_ARROW_STRAIGHT (-2) -->
   <g transform="scale(0.0092592592)">
    <!-- 1/108 -->
    <path d="M -9 54 L -9 -54 L 117 0 z"/>
   </g>
  </marker>
  <marker id="DefaultArrow3" markerUnits="strokeWidth" viewBox="0 0 1 1" markerWidth="1" markerHeight="1" overflow="visible" orient="auto">
   <!-- REF_ARROW_ANGLED -->
   <g transform="scale(0.0092592592)">
    <path d="M -27 54 L -9 0 L -27 -54 L 135 0 z"/>
   </g>
  </marker>
  <marker id="DefaultArrow4" markerUnits="strokeWidth" viewBox="0 0 1 1" markerWidth="1" markerHeight="1" overflow="visible" orient="auto">
   <!-- REF_ARROW_ROUNDED -->
   <g transform="scale(0.0092592592)">
    <path d="M -9,0 L -9,-45 C -9,-51.708 2.808,-56.580 9,-54 L 117,-9 C 120.916,-7.369 126.000,-4.242 126,0 C 126,4.242 120.916,7.369 117,9 L 9,54 C 2.808,56.580 -9,51.708 -9,45 z"/>
   </g>
  </marker>
  <marker id="DefaultArrow5" markerUnits="strokeWidth" viewBox="0 0 1 1" markerWidth="1" markerHeight="1" overflow="visible" orient="auto">
   <!-- REF_ARROW_SPOT -->
   <g transform="scale(0.0092592592)">
    <path d="M -54, 0 C -54,29.807 -29.807,54 0,54 C 29.807,54 54,29.807 54,0 C 54,-29.807 29.807,-54 0,-54 C -29.807,-54 -54,-29.807 -54,0 z"/>
   </g>
  </marker>
  <marker id="DefaultArrow6" markerUnits="strokeWidth" viewBox="0 0 1 1" markerWidth="1" markerHeight="1" overflow="visible" orient="auto">
   <!-- REF_ARROW_DIAMOND -->
   <g transform="scale(0.0092592592)">
    <path d="M -63,0 L 0,63 L 63,0 L 0,-63 z"/>
   </g>
  </marker>
  <marker id="DefaultArrow7" markerUnits="strokeWidth" viewBox="0 0 1 1" markerWidth="1" markerHeight="1" overflow="visible" orient="auto">
   <!-- REF_ARROW_FEATHER -->
   <g transform="scale(0.0092592592)">
    <path d="M 18,-54 L 108,-54 L 63,0 L 108,54 L 18, 54 L -36,0 z"/>
   </g>
  </marker>
  <marker id="DefaultArrow8" markerUnits="strokeWidth" viewBox="0 0 1 1" markerWidth="1" markerHeight="1" overflow="visible" orient="auto">
   <!-- REF_ARROW_FEATHER2 -->
   <g transform="scale(0.0092592592)">
    <path d="M -36,0 L 18,-54 L 54,-54 L 18,-18 L 27,-18 L 63,-54 L 99,-54 L 63,-18 L 72,-18 L 108,-54 L 144,-54 L 90,0 L 144,54 L 108,54 L 72,18 L 63,18 L 99,54 L 63,54 L 27,18 L 18,18 L 54,54 L 18,54 z"/>
   </g>
  </marker>
  <marker id="DefaultArrow9" markerUnits="strokeWidth" viewBox="0 0 1 1" markerWidth="1" markerHeight="1" overflow="visible" orient="auto">
   <!-- REF_ARROW_HOLLOWDIAMOND -->
   <g transform="scale(0.0092592592)">
    <path d="M 0,45 L -45,0 L 0, -45 L 45, 0 z M 0, 63 L-63, 0 L 0, -63 L 63, 0 z"/>
   </g>
  </marker>
  <filter id="StainedFilter">
   <feBlend mode="multiply" in2="BackgroundImage" in="SourceGraphic" result="blend"/>
   <feComposite in="blend" in2="SourceAlpha" operator="in" result="comp"/>
  </filter>
  <filter id="BleachFilter">
   <feBlend mode="screen" in2="BackgroundImage" in="SourceGraphic" result="blend"/>
   <feComposite in="blend" in2="SourceAlpha" operator="in" result="comp"/>
  </filter>
  <filter id="InvertTransparencyBitmapFilter">
   <feComponentTransfer>
    <feFuncR type="gamma" amplitude="1.055" exponent=".416666666" offset="-0.055"/>
    <feFuncG type="gamma" amplitude="1.055" exponent=".416666666" offset="-0.055"/>
    <feFuncB type="gamma" amplitude="1.055" exponent=".416666666" offset="-0.055"/>
   </feComponentTransfer>
   <feComponentTransfer>
    <feFuncR type="linear" slope="-1" intercept="1"/>
    <feFuncG type="linear" slope="-1" intercept="1"/>
    <feFuncB type="linear" slope="-1" intercept="1"/>
    <feFuncA type="linear" slope="1" intercept="0"/>
   </feComponentTransfer>
   <feComponentTransfer>
    <feFuncR type="gamma" amplitude="1" exponent="2.4" offset="0"/>
    <feFuncG type="gamma" amplitude="1" exponent="2.4" offset="0"/>
    <feFuncB type="gamma" amplitude="1" exponent="2.4" offset="0"/>
   </feComponentTransfer>
  </filter>
  <linearGradient id="LinearGradient" gradientUnits="userSpaceOnUse" x1="0" y1="0" x2="-13.052" y2="-22.018" gradientTransform="translate(87.003 832.5)">
   <stop offset="0" stop-color="#9dc1d4"/>
   <stop offset="1" stop-color="#a4a4a4"/>
  </linearGradient>
  <linearGradient id="LinearGradient_1" gradientUnits="userSpaceOnUse" x1="0" y1="0" x2="3.75" y2="4.5" gradientTransform="translate(71.253 813)">
   <stop offset="0" stop-color="#8de6ff"/>
   <stop offset="1" stop-color="#a2acb2"/>
  </linearGradient>
  <linearGradient id="LinearGradient_2" gradientUnits="userSpaceOnUse" x1="0" y1="0" x2="11.1" y2="13.35" gradientTransform="translate(70.463 812.815)">
   <stop offset="0" stop-color="#ffffff"/>
   <stop offset="1" stop-color="#000000"/>
  </linearGradient>
  <linearGradient id="LinearGradient_3" gradientUnits="userSpaceOnUse" x1="0" y1="0" x2="23.897" y2="51.24" gradientTransform="translate(71.356 809.01)">
   <stop offset="0" stop-color="#a1b2bb"/>
   <stop offset="1" stop-color="#ddffff"/>
  </linearGradient>
  <linearGradient id="LinearGradient_4" gradientUnits="userSpaceOnUse" x1="0" y1="0" x2="0" y2="-73.506" gradientTransform="translate(82.503 882.753)">
   <stop offset="0" stop-color="#ffffff"/>
   <stop offset="1" stop-color="#000000"/>
  </linearGradient>
  <linearGradient id="LinearGradient_5" gradientUnits="userSpaceOnUse" x1="0" y1="0" x2="-3.75" y2="-11.25" gradientTransform="translate(84.753 823.5)">
   <stop offset="0" stop-color="#5a707f"/>
   <stop offset="1" stop-color="#394f5d"/>
  </linearGradient>
  <linearGradient id="LinearGradient_6" gradientUnits="userSpaceOnUse" x1="0" y1="0" x2="-1.5" y2="-12" gradientTransform="translate(86.253 823.5)">
   <stop offset="0" stop-color="#ffffff"/>
   <stop offset="1" stop-color="#b2b2b2"/>
  </linearGradient>
  <linearGradient id="LinearGradient_7" gradientUnits="userSpaceOnUse" x1="0" y1="0" x2="-3" y2="-24" gradientTransform="translate(84.753 835.5)">
   <stop offset="0" stop-color="#ffffff"/>
   <stop offset="1" stop-color="#000000"/>
  </linearGradient>
  <linearGradient id="LinearGradient_8" gradientUnits="userSpaceOnUse" x1="0" y1="0" x2="-5.487" y2="-38.2" gradientTransform="translate(87.753 852)">
   <stop offset="0" stop-color="#ffffff"/>
   <stop offset="1" stop-color="#000000"/>
  </linearGradient>
  <linearGradient id="LinearGradient_9" gradientUnits="userSpaceOnUse" x1="0" y1="0" x2="-3" y2="-13.5" gradientTransform="translate(84.003 831.75)">
   <stop offset="0" stop-color="#b1c5cf"/>
   <stop offset="1" stop-color="#495256"/>
  </linearGradient>
  <linearGradient id="LinearGradient_10" gradientUnits="userSpaceOnUse" x1="0" y1="0" x2="-3" y2="-13.5" gradientTransform="translate(84.003 831.75)">
   <stop offset="0" stop-color="#b1c5cf"/>
   <stop offset="1" stop-color="#495256"/>
  </linearGradient>
  <linearGradient id="LinearGradient_11" gradientUnits="userSpaceOnUse" x1="0" y1="0" x2="-3" y2="-13.5" gradientTransform="translate(84.003 831.75)">
   <stop offset="0" stop-color="#b1c5cf"/>
   <stop offset="1" stop-color="#495256"/>
  </linearGradient>
 </defs>
 <g id="Document" fill="none" stroke="black" font-family="Times New Roman" font-size="16" transform="scale(1 -1)">
  <g id="Spread" transform="translate(0 -933.75)">
   <g id="icons">
    <g id="Group">
     <rect x="67.503" y="805.501" width="24" height="23.999" stroke="none" stroke-linejoin="miter" stroke-opacity="0.427451" stroke-width="0.5" stroke-miterlimit="79.8403193612775"/>
     <path d="M 67.5,824.519 L 67.5,809.73 C 67.5,808.222 68.725,806.997 70.233,806.997 L 88.022,806.997 C 89.53,806.997 90.755,808.222 90.755,809.73 L 90.755,824.519 C 90.755,826.027 89.53,827.252 88.022,827.252 L 70.233,827.252 C 68.725,827.252 67.5,826.027 67.5,824.519 Z" stroke="none" stroke-opacity="0.337255" fill="#000000" stroke-linejoin="miter" marker-start="none" marker-end="none" fill-opacity="0.337255"/>
     <path d="M 68.25,825.269 L 68.25,810.48 C 68.25,808.972 69.475,807.747 70.983,807.747 L 88.772,807.747 C 90.28,807.747 91.505,808.972 91.505,810.48 L 91.505,825.269 C 91.505,826.777 90.28,828.002 88.772,828.002 L 70.983,828.002 C 69.475,828.002 68.25,826.777 68.25,825.269 Z" stroke="none" stroke-opacity="0.337255" fill="#000000" stroke-linejoin="miter" marker-start="none" marker-end="none" fill-opacity="0.337255"/>
     <path d="M 69.001,825.167 L 69.001,810.582 C 69.001,809.433 69.934,808.5 71.083,808.5 L 88.672,808.5 C 89.821,808.5 90.754,809.433 90.754,810.582 L 90.754,825.167 C 90.754,826.316 89.821,827.249 88.672,827.249 L 71.083,827.249 C 69.934,827.249 69.001,826.316 69.001,825.167 Z" stroke="none" stroke-linejoin="miter" marker-start="none" marker-end="none" fill="url(#LinearGradient)"/>
     <mask id="TranspMask">
      <rect x="-10%" y="-10%" width="120%" height="120%" fill="url(#LinearGradient_2)" stroke="none"/>
     </mask>
     <path d="M 69.003,822 L 69.003,811.092 C 69.003,809.592 69.148,808.5 71.398,808.5 L 84.003,808.5 L 82.503,809.25 L 71.806,809.25 C 70.306,809.25 69.753,809.216 69.753,811.322 L 69.753,817.5 C 69.69,818.516 69.509,821.616 69.003,822 Z" stroke="none" stroke-width="0.5" stroke-linecap="round" stroke-linejoin="round" marker-start="none" marker-end="none" stroke-miterlimit="79.8403193612775" mask="url(#TranspMask)" fill="url(#LinearGradient_1)"/>
     <path d="M 90.004,809.832 L 90.004,824.7 C 90.004,825.849 89.424,826.499 88.275,826.499 L 70.333,826.499 C 69.95,826.499 69.592,826.395 69.284,826.215 C 69.645,826.833 70.316,827.249 71.083,827.249 L 88.672,827.249 C 89.821,827.249 90.754,826.316 90.754,825.167 L 90.754,810.582 C 90.754,809.815 90.338,809.144 89.72,808.783 C 89.9,809.091 90.004,809.449 90.004,809.832 Z" stroke="none" stroke-linejoin="miter" marker-start="none" marker-end="none" fill="url(#LinearGradient_3)"/>
     <mask id="TranspMask_1">
      <rect x="-10%" y="-10%" width="120%" height="120%" fill="url(#LinearGradient_4)" stroke="none"/>
     </mask>
     <path d="M 69.001,825.167 L 69.001,817.332 C 74.848,814.411 84.595,814.333 90.754,817.332 L 90.754,825.167 C 90.754,826.316 89.821,827.249 88.672,827.249 L 71.083,827.249 C 69.934,827.249 69.001,826.316 69.001,825.167 Z" stroke="none" fill="#ffffff" stroke-linejoin="miter" marker-start="none" marker-end="none" mask="url(#TranspMask_1)"/>
     <path d="M 70.503,826.908 L 70.503,826.841 C 70.503,826.653 70.809,826.5 71.186,826.5 L 88.569,826.5 C 88.946,826.5 89.252,826.653 89.252,826.841 L 89.252,826.908 C 89.252,827.096 88.946,827.249 88.569,827.249 L 71.186,827.249 C 70.809,827.249 70.503,827.096 70.503,826.908 Z" stroke="none" fill="#ffffff" stroke-linecap="round" stroke-linejoin="round" stroke-width="0.5" marker-start="none" marker-end="none" stroke-miterlimit="79.8403193612775"/>
     <path d="M 70.502,822.738 L 70.502,810.761 C 70.502,810.341 70.844,809.999 71.264,809.999 L 88.491,809.999 C 88.911,809.999 89.253,810.341 89.253,810.761 L 89.253,822.738 C 89.253,823.158 88.911,823.5 88.491,823.5 L 71.264,823.5 C 70.844,823.5 70.502,823.158 70.502,822.738 Z" stroke="none" stroke-width="0.5" stroke-linecap="round" stroke-linejoin="round" marker-start="none" marker-end="none" stroke-miterlimit="79.8403193612775" fill="url(#LinearGradient_5)"/>
     <path d="M 71.251,822.078 L 71.251,811.42 C 71.251,811.05 71.565,810.748 71.95,810.748 L 87.805,810.748 C 88.19,810.748 88.504,811.05 88.504,811.42 L 88.504,822.078 C 88.504,822.449 88.19,822.751 87.805,822.751 L 71.95,822.751 C 71.565,822.751 71.251,822.449 71.251,822.078 Z" stroke="none" stroke-width="0.5" stroke-linecap="round" stroke-linejoin="round" marker-start="none" marker-end="none" stroke-miterlimit="79.8403193612775" fill="url(#LinearGradient_6)"/>
     <mask id="TranspMask_2">
      <rect x="-10%" y="-10%" width="120%" height="120%" fill="url(#LinearGradient_7)" stroke="none"/>
     </mask>
     <path d="M 71.251,816.75 L 71.251,822.078 C 71.251,822.449 71.565,822.751 71.95,822.751 L 87.805,822.751 C 88.19,822.751 88.504,822.449 88.504,822.078 L 88.504,816.75 C 83.452,815.733 77.242,815.641 71.251,816.75 Z" stroke="none" fill="#ffffff" stroke-width="0.5" stroke-linejoin="round" stroke-linecap="round" marker-start="none" marker-end="none" stroke-miterlimit="79.8403193612775" mask="url(#TranspMask_2)"/>
     <mask id="TranspMask_3">
      <rect x="-10%" y="-10%" width="120%" height="120%" fill="url(#LinearGradient_8)" stroke="none"/>
     </mask>
     <path d="M 88.503,822 L 71.253,822 C 71.257,822.472 71.507,822.722 72.003,822.75 L 87.753,822.75 C 88.317,822.732 88.484,822.421 88.503,822 Z" stroke="none" stroke-width="0.5" fill="#ffffff" stroke-linecap="round" stroke-linejoin="round" marker-start="none" marker-end="none" stroke-miterlimit="79.8403193612775" mask="url(#TranspMask_3)"/>
     <path d="M 87.753,825.749 L 87.753,824.25 L 89.252,824.25 L 89.252,825.749 L 87.753,825.749 Z" stroke="none" stroke-opacity="0.337255" stroke-linejoin="miter" marker-start="none" marker-end="none" fill="url(#LinearGradient_9)"/>
     <path d="M 85.503,825.749 L 85.503,824.25 L 87.002,824.25 L 87.002,825.749 L 85.503,825.749 Z" stroke="none" stroke-opacity="0.337255" stroke-linejoin="miter" marker-start="none" marker-end="none" fill="url(#LinearGradient_10)"/>
     <path d="M 83.253,825.75 L 83.253,824.251 L 84.752,824.251 L 84.752,825.75 L 83.253,825.75 Z" stroke="none" stroke-opacity="0.337255" stroke-linejoin="miter" marker-start="none" marker-end="none" fill="url(#LinearGradient_11)"/>
     <path d="M 70.503,810.75 L 70.503,813.75 C 70.503,814.163 70.839,814.5 71.253,814.5 L 72.003,814.5 C 72.416,814.5 72.753,814.163 72.753,813.75 C 73.166,813.75 73.503,813.413 73.503,813 C 73.916,813 74.253,812.663 74.253,812.25 C 74.666,812.25 75.003,811.913 75.003,811.5 L 75.003,810.75 C 75.003,810.336 74.666,810 74.253,810 L 71.253,810 C 70.839,810 70.503,810.336 70.503,810.75 Z" stroke="none" stroke-opacity="0.537255" stroke-width="0.5" fill="#000000" fill-rule="evenodd" marker-start="none" marker-end="none" stroke-miterlimit="79.8403193612775" fill-opacity="0.537255"/>
     <path d="M 72.07,811.995 C 71.93,812.224 72.003,812.525 72.233,812.665 L 78.929,816.749 L 72.233,820.833 C 72.003,820.973 71.93,821.274 72.07,821.503 C 72.21,821.733 72.511,821.806 72.74,821.666 L 79.866,817.32 L 86.991,821.665 C 87.22,821.805 87.521,821.732 87.661,821.502 C 87.801,821.273 87.728,820.972 87.498,820.832 L 80.802,816.749 L 87.498,812.666 C 87.728,812.526 87.801,812.225 87.661,811.996 C 87.521,811.766 87.22,811.693 86.991,811.833 L 79.866,816.177 L 72.74,811.832 C 72.511,811.692 72.21,811.765 72.07,811.995 Z" stroke-width="1.5" stroke-opacity="0.537255" fill="#ffffff" fill-rule="evenodd" marker-start="none" marker-end="none" stroke-miterlimit="79.8403193612775" fill-opacity="0.537255"/>
     <path d="M 71.253,813.75 L 71.253,810.75 L 74.253,810.75 L 74.253,811.5 L 73.503,811.5 L 73.503,812.25 L 72.753,812.25 L 72.753,813 L 72.003,813 L 72.003,813.75 L 71.253,813.75 Z" stroke="none" fill="#ffffff" stroke-width="0.5" stroke-linecap="round" stroke-linejoin="miter" marker-start="none" marker-end="none" stroke-miterlimit="79.8403193612775"/>
     <path d="M 89.253,810.75 L 89.253,813.75 C 89.253,814.163 88.917,814.5 88.503,814.5 L 87.753,814.5 C 87.34,814.5 87.003,814.163 87.003,813.75 C 86.59,813.75 86.253,813.413 86.253,813 C 85.84,813 85.503,812.663 85.503,812.25 C 85.09,812.25 84.753,811.913 84.753,811.5 L 84.753,810.75 C 84.753,810.336 85.09,810 85.503,810 L 88.503,810 C 88.917,810 89.253,810.336 89.253,810.75 Z" stroke="none" stroke-opacity="0.537255" stroke-width="0.5" fill="#000000" fill-rule="evenodd" marker-start="none" marker-end="none" stroke-miterlimit="79.8403193612775" fill-opacity="0.537255"/>
     <path d="M 88.503,813.75 L 88.503,810.75 L 85.503,810.75 L 85.503,811.5 L 86.253,811.5 L 86.253,812.25 L 87.003,812.25 L 87.003,813 L 87.753,813 L 87.753,813.75 L 88.503,813.75 Z" stroke="none" fill="#ffffff" stroke-width="0.5" stroke-linecap="round" stroke-linejoin="miter" marker-start="none" marker-end="none" stroke-miterlimit="79.8403193612775"/>
     <path d="M 70.503,822.75 L 70.503,819.75 C 70.503,819.337 70.839,819 71.253,819 L 72.003,819 C 72.416,819 72.753,819.337 72.753,819.75 C 73.166,819.75 73.503,820.087 73.503,820.5 C 73.916,820.5 74.253,820.837 74.253,821.25 C 74.666,821.25 75.003,821.587 75.003,822 L 75.003,822.75 C 75.003,823.164 74.666,823.5 74.253,823.5 L 71.253,823.5 C 70.839,823.5 70.503,823.164 70.503,822.75 Z" stroke="none" stroke-opacity="0.537255" stroke-width="0.5" fill="#000000" fill-rule="evenodd" marker-start="none" marker-end="none" stroke-miterlimit="79.8403193612775" fill-opacity="0.537255"/>
     <path d="M 71.253,819.75 L 71.253,822.75 L 74.253,822.75 L 74.253,822 L 73.503,822 L 73.503,821.25 L 72.753,821.25 L 72.753,820.5 L 72.003,820.5 L 72.003,819.75 L 71.253,819.75 Z" stroke="none" fill="#ffffff" stroke-width="0.5" stroke-linecap="round" stroke-linejoin="miter" marker-start="none" marker-end="none" stroke-miterlimit="79.8403193612775"/>
     <path d="M 89.253,822.75 L 89.253,819.75 C 89.253,819.337 88.917,819 88.503,819 L 87.753,819 C 87.34,819 87.003,819.337 87.003,819.75 C 86.59,819.75 86.253,820.087 86.253,820.5 C 85.84,820.5 85.503,820.837 85.503,821.25 C 85.09,821.25 84.753,821.587 84.753,822 L 84.753,822.75 C 84.753,823.164 85.09,823.5 85.503,823.5 L 88.503,823.5 C 88.917,823.5 89.253,823.164 89.253,822.75 Z" stroke="none" stroke-opacity="0.537255" stroke-width="0.5" fill="#000000" fill-rule="evenodd" marker-start="none" marker-end="none" stroke-miterlimit="79.8403193612775" fill-opacity="0.537255"/>
     <path d="M 88.503,819.75 L 88.503,822.75 L 85.503,822.75 L 85.503,822 L 86.253,822 L 86.253,821.25 L 87.003,821.25 L 87.003,820.5 L 87.753,820.5 L 87.753,819.75 L 88.503,819.75 Z" stroke="none" fill="#ffffff" stroke-width="0.5" stroke-linecap="round" stroke-linejoin="miter" marker-start="none" marker-end="none" stroke-miterlimit="79.8403193612775"/>
     <path d="M 72.487,821.25 L 87.245,812.25" fill="none" stroke="#ffffff" stroke-width="0.975" stroke-linecap="round" stroke-linejoin="round" stroke-miterlimit="79.8403193612775"/>
     <path d="M 72.487,812.248 L 87.245,821.248" fill="none" stroke="#ffffff" stroke-width="0.975" stroke-linecap="round" stroke-linejoin="round" stroke-miterlimit="79.8403193612775"/>
    </g>
   </g>
  </g>
 </g>
</svg>
