<?xml version="1.0" standalone="no"?>
<!DOCTYPE svg PUBLIC "-//W3C//DTD SVG 1.1//EN" "http://www.w3.org/Graphics/SVG/1.1/DTD/svg11.dtd">
<!--Generator: Xara Xtreme (www.xara.com), SVG filter version: 1.0.0.13-->
<svg stroke-width="0.501" stroke-linejoin="bevel" fill-rule="evenodd" xmlns:xlink="http://www.w3.org/1999/xlink" xmlns="http://www.w3.org/2000/svg" version="1.1" overflow="visible" width="996.75pt" height="933.75pt" viewBox="0 0 996.75 933.75">
 <defs>
  <marker id="DefaultArrow2" markerUnits="strokeWidth" viewBox="0 0 1 1" markerWidth="1" markerHeight="1" overflow="visible" orient="auto">
   <!-- REF_ARROW_STRAIGHT (-2) -->
   <g transform="scale(0.0092592592)">
    <!-- 1/108 -->
    <path d="M -9 54 L -9 -54 L 117 0 z"/>
   </g>
  </marker>
  <marker id="DefaultArrow3" markerUnits="strokeWidth" viewBox="0 0 1 1" markerWidth="1" markerHeight="1" overflow="visible" orient="auto">
   <!-- REF_ARROW_ANGLED -->
   <g transform="scale(0.0092592592)">
    <path d="M -27 54 L -9 0 L -27 -54 L 135 0 z"/>
   </g>
  </marker>
  <marker id="DefaultArrow4" markerUnits="strokeWidth" viewBox="0 0 1 1" markerWidth="1" markerHeight="1" overflow="visible" orient="auto">
   <!-- REF_ARROW_ROUNDED -->
   <g transform="scale(0.0092592592)">
    <path d="M -9,0 L -9,-45 C -9,-51.708 2.808,-56.580 9,-54 L 117,-9 C 120.916,-7.369 126.000,-4.242 126,0 C 126,4.242 120.916,7.369 117,9 L 9,54 C 2.808,56.580 -9,51.708 -9,45 z"/>
   </g>
  </marker>
  <marker id="DefaultArrow5" markerUnits="strokeWidth" viewBox="0 0 1 1" markerWidth="1" markerHeight="1" overflow="visible" orient="auto">
   <!-- REF_ARROW_SPOT -->
   <g transform="scale(0.0092592592)">
    <path d="M -54, 0 C -54,29.807 -29.807,54 0,54 C 29.807,54 54,29.807 54,0 C 54,-29.807 29.807,-54 0,-54 C -29.807,-54 -54,-29.807 -54,0 z"/>
   </g>
  </marker>
  <marker id="DefaultArrow6" markerUnits="strokeWidth" viewBox="0 0 1 1" markerWidth="1" markerHeight="1" overflow="visible" orient="auto">
   <!-- REF_ARROW_DIAMOND -->
   <g transform="scale(0.0092592592)">
    <path d="M -63,0 L 0,63 L 63,0 L 0,-63 z"/>
   </g>
  </marker>
  <marker id="DefaultArrow7" markerUnits="strokeWidth" viewBox="0 0 1 1" markerWidth="1" markerHeight="1" overflow="visible" orient="auto">
   <!-- REF_ARROW_FEATHER -->
   <g transform="scale(0.0092592592)">
    <path d="M 18,-54 L 108,-54 L 63,0 L 108,54 L 18, 54 L -36,0 z"/>
   </g>
  </marker>
  <marker id="DefaultArrow8" markerUnits="strokeWidth" viewBox="0 0 1 1" markerWidth="1" markerHeight="1" overflow="visible" orient="auto">
   <!-- REF_ARROW_FEATHER2 -->
   <g transform="scale(0.0092592592)">
    <path d="M -36,0 L 18,-54 L 54,-54 L 18,-18 L 27,-18 L 63,-54 L 99,-54 L 63,-18 L 72,-18 L 108,-54 L 144,-54 L 90,0 L 144,54 L 108,54 L 72,18 L 63,18 L 99,54 L 63,54 L 27,18 L 18,18 L 54,54 L 18,54 z"/>
   </g>
  </marker>
  <marker id="DefaultArrow9" markerUnits="strokeWidth" viewBox="0 0 1 1" markerWidth="1" markerHeight="1" overflow="visible" orient="auto">
   <!-- REF_ARROW_HOLLOWDIAMOND -->
   <g transform="scale(0.0092592592)">
    <path d="M 0,45 L -45,0 L 0, -45 L 45, 0 z M 0, 63 L-63, 0 L 0, -63 L 63, 0 z"/>
   </g>
  </marker>
  <filter id="StainedFilter">
   <feBlend mode="multiply" in2="BackgroundImage" in="SourceGraphic" result="blend"/>
   <feComposite in="blend" in2="SourceAlpha" operator="in" result="comp"/>
  </filter>
  <filter id="BleachFilter">
   <feBlend mode="screen" in2="BackgroundImage" in="SourceGraphic" result="blend"/>
   <feComposite in="blend" in2="SourceAlpha" operator="in" result="comp"/>
  </filter>
  <filter id="InvertTransparencyBitmapFilter">
   <feComponentTransfer>
    <feFuncR type="gamma" amplitude="1.055" exponent=".416666666" offset="-0.055"/>
    <feFuncG type="gamma" amplitude="1.055" exponent=".416666666" offset="-0.055"/>
    <feFuncB type="gamma" amplitude="1.055" exponent=".416666666" offset="-0.055"/>
   </feComponentTransfer>
   <feComponentTransfer>
    <feFuncR type="linear" slope="-1" intercept="1"/>
    <feFuncG type="linear" slope="-1" intercept="1"/>
    <feFuncB type="linear" slope="-1" intercept="1"/>
    <feFuncA type="linear" slope="1" intercept="0"/>
   </feComponentTransfer>
   <feComponentTransfer>
    <feFuncR type="gamma" amplitude="1" exponent="2.4" offset="0"/>
    <feFuncG type="gamma" amplitude="1" exponent="2.4" offset="0"/>
    <feFuncB type="gamma" amplitude="1" exponent="2.4" offset="0"/>
   </feComponentTransfer>
  </filter>
  <linearGradient id="LinearGradient" gradientUnits="userSpaceOnUse" x1="0" y1="0" x2="-5.118" y2="-7.677" gradientTransform="translate(793.544 355.103)">
   <stop offset="0" stop-color="#88b22e"/>
   <stop offset="1" stop-color="#a2d739"/>
  </linearGradient>
  <linearGradient id="LinearGradient_1" gradientUnits="userSpaceOnUse" x1="0" y1="0" x2="-2.591" y2="-2.591" gradientTransform="translate(792.273 352.568)">
   <stop offset="0" stop-color="#afef30"/>
   <stop offset="1" stop-color="#67910e"/>
  </linearGradient>
  <linearGradient id="LinearGradient_2" gradientUnits="userSpaceOnUse" x1="0" y1="0" x2="-6.75" y2="-7.5" gradientTransform="translate(790.5 349.5)">
   <stop offset="0" stop-color="#6f9b12"/>
   <stop offset="1" stop-color="#b6ff26"/>
  </linearGradient>
  <linearGradient id="LinearGradient_3" gradientUnits="userSpaceOnUse" x1="0" y1="0" x2="4.278" y2="4.809" gradientTransform="translate(792.323 351.041)">
   <stop offset="0" stop-color="#afef30"/>
   <stop offset="1" stop-color="#ffffff"/>
  </linearGradient>
  <linearGradient id="LinearGradient_4" gradientUnits="userSpaceOnUse" x1="0" y1="0" x2="-15.75" y2="-63" gradientTransform="translate(804.75 392.25)">
   <stop offset="0" stop-color="#ffffff"/>
   <stop offset="1" stop-color="#000000"/>
  </linearGradient>
 </defs>
 <g id="Document" fill="none" stroke="black" font-family="Times New Roman" font-size="16" transform="scale(1 -1)">
  <g id="Spread" transform="translate(0 -933.75)">
   <g id="icons">
    <g id="Group" stroke="none">
     <rect x="779.25" y="338.251" width="24" height="23.999" stroke-linejoin="miter" stroke-opacity="0.427451" stroke-width="0.5" stroke-miterlimit="79.8403193612775"/>
     <path d="M 788.952,338.66 L 787.534,341.454 L 787.28,341.558 L 784.305,340.585 C 784.036,340.497 783.741,340.567 783.541,340.767 L 781.735,342.575 C 781.533,342.777 781.464,343.075 781.555,343.345 L 782.551,346.295 L 782.452,346.534 L 779.66,347.952 C 779.408,348.08 779.25,348.338 779.25,348.621 L 779.25,351.176 C 779.25,351.461 779.411,351.721 779.667,351.848 L 782.458,353.228 L 782.557,353.467 L 781.585,356.445 C 781.497,356.713 781.568,357.008 781.767,357.208 L 783.575,359.014 C 783.777,359.216 784.076,359.285 784.346,359.194 L 787.297,358.194 L 787.534,358.292 L 788.952,361.089 C 789.079,361.341 789.338,361.5 789.621,361.5 L 792.176,361.5 C 792.461,361.5 792.722,361.337 792.848,361.082 L 794.228,358.287 L 794.451,358.195 L 797.403,359.194 C 797.673,359.285 797.972,359.216 798.174,359.014 L 799.982,357.208 C 800.182,357.008 800.252,356.713 800.164,356.444 L 799.188,353.469 L 799.289,353.228 L 802.082,351.848 C 802.338,351.721 802.5,351.461 802.5,351.176 L 802.5,348.621 C 802.5,348.338 802.341,348.079 802.088,347.951 L 799.294,346.536 L 799.194,346.294 L 800.194,343.346 C 800.285,343.076 800.216,342.777 800.014,342.575 L 798.208,340.767 C 798.008,340.568 797.713,340.497 797.445,340.585 L 794.465,341.557 L 794.229,341.459 L 792.848,338.667 C 792.721,338.411 792.461,338.25 792.176,338.25 L 789.621,338.25 C 789.338,338.25 789.079,338.408 788.952,338.66 Z M 792.044,349.875 C 792.044,350.519 791.519,351.044 790.875,351.044 C 790.23,351.044 789.706,350.519 789.706,349.875 C 789.706,349.23 790.23,348.706 790.875,348.706 C 791.519,348.706 792.044,349.23 792.044,349.875 Z" stroke-width="0.5" fill="#000000" fill-rule="evenodd" marker-start="none" marker-end="none" stroke-miterlimit="79.8403193612775" fill-opacity="0.337255"/>
     <path d="M 789.702,339.41 L 788.284,342.204 L 788.03,342.308 L 785.055,341.335 C 784.786,341.247 784.491,341.317 784.291,341.517 L 782.485,343.325 C 782.283,343.527 782.214,343.825 782.305,344.095 L 783.301,347.045 L 783.202,347.284 L 780.41,348.702 C 780.158,348.83 780,349.088 780,349.371 L 780,351.926 C 780,352.211 780.161,352.471 780.417,352.598 L 783.208,353.978 L 783.307,354.217 L 782.335,357.195 C 782.247,357.463 782.318,357.758 782.517,357.958 L 784.325,359.764 C 784.527,359.966 784.826,360.035 785.096,359.944 L 788.047,358.944 L 788.284,359.042 L 789.702,361.839 C 789.829,362.091 790.088,362.25 790.371,362.25 L 792.926,362.25 C 793.211,362.25 793.472,362.087 793.598,361.832 L 794.978,359.037 L 795.201,358.945 L 798.153,359.944 C 798.423,360.035 798.722,359.966 798.924,359.764 L 800.732,357.958 C 800.932,357.758 801.002,357.463 800.914,357.194 L 799.938,354.219 L 800.039,353.978 L 802.832,352.598 C 803.088,352.471 803.25,352.211 803.25,351.926 L 803.25,349.371 C 803.25,349.088 803.091,348.829 802.838,348.701 L 800.044,347.286 L 799.944,347.044 L 800.944,344.096 C 801.035,343.826 800.966,343.527 800.764,343.325 L 798.958,341.517 C 798.758,341.318 798.463,341.247 798.195,341.335 L 795.215,342.307 L 794.979,342.209 L 793.598,339.417 C 793.471,339.161 793.211,339 792.926,339 L 790.371,339 C 790.088,339 789.829,339.158 789.702,339.41 Z M 792.794,350.625 C 792.794,351.269 792.269,351.794 791.625,351.794 C 790.98,351.794 790.456,351.269 790.456,350.625 C 790.456,349.98 790.98,349.456 791.625,349.456 C 792.269,349.456 792.794,349.98 792.794,350.625 Z" stroke-width="0.5" fill="#000000" fill-rule="evenodd" marker-start="none" marker-end="none" stroke-miterlimit="79.8403193612775" fill-opacity="0.337255"/>
     <path d="M 790.371,339.75 L 788.829,342.79 C 788.567,342.883 788.311,342.99 788.061,343.108 L 784.822,342.048 L 783.016,343.856 L 784.102,347.072 C 783.986,347.317 783.88,347.57 783.788,347.829 L 780.75,349.371 L 780.75,351.926 L 783.792,353.43 C 783.885,353.689 783.99,353.941 784.107,354.187 L 783.048,357.428 L 784.856,359.234 L 788.072,358.145 C 788.317,358.26 788.57,358.367 788.829,358.458 L 790.371,361.5 L 792.926,361.5 L 794.43,358.455 C 794.683,358.363 794.933,358.26 795.177,358.145 L 798.394,359.234 L 800.202,357.428 L 799.14,354.189 C 799.257,353.941 799.363,353.689 799.457,353.43 L 802.5,351.926 L 802.5,349.371 L 799.46,347.831 C 799.368,347.57 799.262,347.317 799.145,347.07 L 800.234,343.856 L 798.428,342.048 L 795.185,343.107 C 794.939,342.991 794.689,342.887 794.431,342.793 L 792.926,339.75 L 790.371,339.75 Z M 793.544,350.625 C 793.544,351.684 792.684,352.544 791.625,352.544 C 790.566,352.544 789.706,351.684 789.706,350.625 C 789.706,349.566 790.566,348.706 791.625,348.706 C 792.684,348.706 793.544,349.566 793.544,350.625 Z" stroke-width="0.783" stroke-opacity="0.337255" marker-start="none" marker-end="none" stroke-miterlimit="79.8403193612775" fill="url(#LinearGradient)"/>
     <path d="M 784.499,350.625 C 784.499,354.558 787.692,357.75 791.625,357.75 C 795.558,357.75 798.752,354.558 798.752,350.625 C 798.752,346.692 795.558,343.5 791.625,343.5 C 787.692,343.5 784.499,346.692 784.499,350.625 Z M 794.864,350.625 C 794.864,352.413 793.413,353.864 791.625,353.864 C 789.837,353.864 788.387,352.413 788.387,350.625 C 788.387,348.837 789.837,347.386 791.625,347.386 C 793.413,347.386 794.864,348.837 794.864,350.625 Z" stroke-width="0.794" stroke-opacity="0.337255" marker-start="none" marker-end="none" stroke-miterlimit="79.8403193612775" fill="url(#LinearGradient_1)"/>
     <path d="M 792.043,344.26 C 788.33,344.035 784.722,347.216 785.264,351.873 C 785.527,353.872 787.748,353.637 787.565,351.872 C 787.538,347.829 789.498,346.354 792.028,346.491 C 793.347,346.591 794.047,344.533 792.043,344.26 Z" stroke-opacity="0.337255" stroke-width="0.999" marker-start="none" marker-end="none" stroke-miterlimit="79.8403193612775" fill="url(#LinearGradient_2)"/>
     <path d="M 789.999,357.564 C 789.201,357.33 789.791,356.107 790.684,355.959 C 794.726,356.123 797.09,353.33 796.463,348.856 C 796.259,348.048 797.918,346.954 798.382,348.378 C 799.26,351.385 798.583,353.876 796.534,355.795 C 794.641,357.517 792.197,358.085 789.999,357.564 Z" stroke-width="0.864" marker-start="none" marker-end="none" stroke-miterlimit="79.8403193612775" fill="url(#LinearGradient_3)"/>
     <mask id="TranspMask">
      <rect x="-10%" y="-10%" width="120%" height="120%" fill="url(#LinearGradient_4)" stroke="none"/>
     </mask>
     <path d="M 800.044,343.666 L 799.145,346.32 C 799.195,346.426 799.243,346.533 799.289,346.642 L 800.234,343.856 L 800.044,343.666 Z M 783.205,343.666 L 783.016,343.856 L 783.957,346.644 C 784.003,346.535 784.051,346.427 784.102,346.322 L 783.205,343.666 Z M 789.706,349.875 C 789.706,350.003 789.718,350.128 789.742,350.25 C 789.917,349.37 790.694,348.706 791.625,348.706 C 792.555,348.706 793.332,349.37 793.507,350.25 C 793.531,350.128 793.544,350.003 793.544,349.875 C 793.544,348.816 792.684,347.956 791.625,347.956 C 790.566,347.956 789.706,348.816 789.706,349.875 Z M 780.75,351.176 L 780.75,351.926 L 783.792,353.43 C 783.845,353.579 783.903,353.726 783.964,353.871 L 784.107,353.437 C 783.99,353.191 783.885,352.939 783.792,352.68 L 780.75,351.176 Z M 802.5,351.176 L 799.457,352.68 C 799.363,352.939 799.257,353.191 799.14,353.439 L 799.282,353.872 C 799.344,353.726 799.402,353.579 799.457,353.43 L 802.5,351.926 L 802.5,351.176 Z M 783.232,356.862 L 783.048,357.428 L 784.856,359.234 L 788.072,358.145 C 788.317,358.26 788.57,358.367 788.829,358.458 L 790.371,361.5 L 792.926,361.5 L 794.43,358.455 C 794.683,358.363 794.933,358.26 795.177,358.145 L 798.394,359.234 L 800.202,357.428 L 800.016,356.863 L 798.394,358.484 L 795.177,357.395 C 794.933,357.51 794.683,357.613 794.43,357.705 L 792.926,360.75 L 790.371,360.75 L 788.829,357.708 C 788.57,357.617 788.317,357.51 788.072,357.395 L 784.856,358.484 L 783.232,356.862 Z" fill="#ffffff" stroke-width="0.783" stroke-opacity="0.337255" marker-start="none" marker-end="none" stroke-miterlimit="79.8403193612775" mask="url(#TranspMask)"/>
    </g>
   </g>
  </g>
 </g>
</svg>
