<?xml version="1.0" standalone="no"?>
<!DOCTYPE svg PUBLIC "-//W3C//DTD SVG 1.1//EN" "http://www.w3.org/Graphics/SVG/1.1/DTD/svg11.dtd">
<!--Generator: Xara Xtreme (www.xara.com), SVG filter version: 1.0.0.13-->
<svg stroke-width="0.501" stroke-linejoin="bevel" fill-rule="evenodd" xmlns:xlink="http://www.w3.org/1999/xlink" xmlns="http://www.w3.org/2000/svg" version="1.1" overflow="visible" width="996.75pt" height="933.75pt" viewBox="0 0 996.75 933.75">
 <defs>
  <marker id="DefaultArrow2" markerUnits="strokeWidth" viewBox="0 0 1 1" markerWidth="1" markerHeight="1" overflow="visible" orient="auto">
   <!-- REF_ARROW_STRAIGHT (-2) -->
   <g transform="scale(0.0092592592)">
    <!-- 1/108 -->
    <path d="M -9 54 L -9 -54 L 117 0 z"/>
   </g>
  </marker>
  <marker id="DefaultArrow3" markerUnits="strokeWidth" viewBox="0 0 1 1" markerWidth="1" markerHeight="1" overflow="visible" orient="auto">
   <!-- REF_ARROW_ANGLED -->
   <g transform="scale(0.0092592592)">
    <path d="M -27 54 L -9 0 L -27 -54 L 135 0 z"/>
   </g>
  </marker>
  <marker id="DefaultArrow4" markerUnits="strokeWidth" viewBox="0 0 1 1" markerWidth="1" markerHeight="1" overflow="visible" orient="auto">
   <!-- REF_ARROW_ROUNDED -->
   <g transform="scale(0.0092592592)">
    <path d="M -9,0 L -9,-45 C -9,-51.708 2.808,-56.580 9,-54 L 117,-9 C 120.916,-7.369 126.000,-4.242 126,0 C 126,4.242 120.916,7.369 117,9 L 9,54 C 2.808,56.580 -9,51.708 -9,45 z"/>
   </g>
  </marker>
  <marker id="DefaultArrow5" markerUnits="strokeWidth" viewBox="0 0 1 1" markerWidth="1" markerHeight="1" overflow="visible" orient="auto">
   <!-- REF_ARROW_SPOT -->
   <g transform="scale(0.0092592592)">
    <path d="M -54, 0 C -54,29.807 -29.807,54 0,54 C 29.807,54 54,29.807 54,0 C 54,-29.807 29.807,-54 0,-54 C -29.807,-54 -54,-29.807 -54,0 z"/>
   </g>
  </marker>
  <marker id="DefaultArrow6" markerUnits="strokeWidth" viewBox="0 0 1 1" markerWidth="1" markerHeight="1" overflow="visible" orient="auto">
   <!-- REF_ARROW_DIAMOND -->
   <g transform="scale(0.0092592592)">
    <path d="M -63,0 L 0,63 L 63,0 L 0,-63 z"/>
   </g>
  </marker>
  <marker id="DefaultArrow7" markerUnits="strokeWidth" viewBox="0 0 1 1" markerWidth="1" markerHeight="1" overflow="visible" orient="auto">
   <!-- REF_ARROW_FEATHER -->
   <g transform="scale(0.0092592592)">
    <path d="M 18,-54 L 108,-54 L 63,0 L 108,54 L 18, 54 L -36,0 z"/>
   </g>
  </marker>
  <marker id="DefaultArrow8" markerUnits="strokeWidth" viewBox="0 0 1 1" markerWidth="1" markerHeight="1" overflow="visible" orient="auto">
   <!-- REF_ARROW_FEATHER2 -->
   <g transform="scale(0.0092592592)">
    <path d="M -36,0 L 18,-54 L 54,-54 L 18,-18 L 27,-18 L 63,-54 L 99,-54 L 63,-18 L 72,-18 L 108,-54 L 144,-54 L 90,0 L 144,54 L 108,54 L 72,18 L 63,18 L 99,54 L 63,54 L 27,18 L 18,18 L 54,54 L 18,54 z"/>
   </g>
  </marker>
  <marker id="DefaultArrow9" markerUnits="strokeWidth" viewBox="0 0 1 1" markerWidth="1" markerHeight="1" overflow="visible" orient="auto">
   <!-- REF_ARROW_HOLLOWDIAMOND -->
   <g transform="scale(0.0092592592)">
    <path d="M 0,45 L -45,0 L 0, -45 L 45, 0 z M 0, 63 L-63, 0 L 0, -63 L 63, 0 z"/>
   </g>
  </marker>
  <filter id="StainedFilter">
   <feBlend mode="multiply" in2="BackgroundImage" in="SourceGraphic" result="blend"/>
   <feComposite in="blend" in2="SourceAlpha" operator="in" result="comp"/>
  </filter>
  <filter id="BleachFilter">
   <feBlend mode="screen" in2="BackgroundImage" in="SourceGraphic" result="blend"/>
   <feComposite in="blend" in2="SourceAlpha" operator="in" result="comp"/>
  </filter>
  <filter id="InvertTransparencyBitmapFilter">
   <feComponentTransfer>
    <feFuncR type="gamma" amplitude="1.055" exponent=".416666666" offset="-0.055"/>
    <feFuncG type="gamma" amplitude="1.055" exponent=".416666666" offset="-0.055"/>
    <feFuncB type="gamma" amplitude="1.055" exponent=".416666666" offset="-0.055"/>
   </feComponentTransfer>
   <feComponentTransfer>
    <feFuncR type="linear" slope="-1" intercept="1"/>
    <feFuncG type="linear" slope="-1" intercept="1"/>
    <feFuncB type="linear" slope="-1" intercept="1"/>
    <feFuncA type="linear" slope="1" intercept="0"/>
   </feComponentTransfer>
   <feComponentTransfer>
    <feFuncR type="gamma" amplitude="1" exponent="2.4" offset="0"/>
    <feFuncG type="gamma" amplitude="1" exponent="2.4" offset="0"/>
    <feFuncB type="gamma" amplitude="1" exponent="2.4" offset="0"/>
   </feComponentTransfer>
  </filter>
  <linearGradient id="LinearGradient" gradientUnits="userSpaceOnUse" x1="0" y1="0" x2="-7.134" y2="-16.157" gradientTransform="translate(385.884 -352.843)">
   <stop offset="0" stop-color="#7ec0ed"/>
   <stop offset="1" stop-color="#519bce"/>
  </linearGradient>
  <linearGradient id="LinearGradient_1" gradientUnits="userSpaceOnUse" x1="0" y1="0" x2="-2.25" y2="-15.75" gradientTransform="translate(387 -349.5)">
   <stop offset="0" stop-color="#ffffff"/>
   <stop offset="1" stop-color="#000000"/>
  </linearGradient>
  <linearGradient id="LinearGradient_2" gradientUnits="userSpaceOnUse" x1="0" y1="0" x2="0" y2="6.301" gradientTransform="translate(387 -369.75)">
   <stop offset="0" stop-color="#ffffff"/>
   <stop offset="1" stop-color="#000000"/>
  </linearGradient>
  <linearGradient id="LinearGradient_3" gradientUnits="userSpaceOnUse" x1="0" y1="0" x2="16.208" y2="0" gradientTransform="translate(378.19 -369.785) rotate(90)">
   <stop offset="0" stop-color="#e0e0e0"/>
   <stop offset="1" stop-color="#ffffff"/>
  </linearGradient>
 </defs>
 <g id="Document" fill="none" stroke="black" font-family="Times New Roman" font-size="16" transform="scale(1 -1)">
  <g id="Spread" transform="translate(0 -933.75)">
   <g id="icons">
    <g id="Group" stroke="none">
     <rect x="368.25" y="-372.75" width="24" height="24" stroke-opacity="0.407843" stroke-linejoin="miter"/>
     <rect x="369.749" y="-371.251" width="21.002" height="21.003" rx="2.568" stroke-opacity="0.341176" fill="#000000" stroke-width="0.541" stroke-linejoin="miter" stroke-miterlimit="79.8403193612775" fill-opacity="0.341176"/>
     <rect x="368.999" y="-372.001" width="21.002" height="21.003" rx="2.568" stroke-opacity="0.341176" fill="#000000" stroke-width="0.541" stroke-linejoin="miter" stroke-miterlimit="79.8403193612775" fill-opacity="0.341176"/>
     <rect x="370.5" y="-370.499" width="19.5" height="19.499" rx="1.95" stroke-opacity="0.341176" stroke-width="0.541" stroke-linejoin="miter" stroke-miterlimit="79.8403193612775" fill="url(#LinearGradient)"/>
     <mask id="TranspMask">
      <rect x="-10%" y="-10%" width="120%" height="120%" fill="url(#LinearGradient_1)" stroke="none"/>
     </mask>
     <path d="M 371.248,-353.793 L 371.248,-358.708 L 389.251,-361.708 L 389.251,-353.793 C 389.251,-352.665 388.335,-351.749 387.207,-351.749 L 373.292,-351.749 C 372.164,-351.749 371.248,-352.665 371.248,-353.793 Z" fill="#ffffff" stroke-opacity="0.341176" stroke-width="0.541" stroke-linejoin="miter" marker-start="none" marker-end="none" stroke-miterlimit="79.8403193612775" mask="url(#TranspMask)"/>
     <mask id="TranspMask_1">
      <rect x="-10%" y="-10%" width="120%" height="120%" fill="url(#LinearGradient_2)" stroke="none"/>
     </mask>
     <path d="M 371.248,-367.705 L 371.248,-362.79 C 375.607,-367.733 381.99,-368.123 389.251,-366.54 L 389.251,-367.705 C 389.251,-368.833 388.335,-369.749 387.207,-369.749 L 373.292,-369.749 C 372.164,-369.749 371.248,-368.833 371.248,-367.705 Z" fill="#3ce3ff" stroke-opacity="0.341176" stroke-width="0.541" stroke-linejoin="miter" marker-start="none" marker-end="none" stroke-miterlimit="79.8403193612775" mask="url(#TranspMask_1)"/>
     <path d="M 372,-352.5 L 388.5,-352.5 C 388.274,-351.976 387.766,-351.734 387,-351.75 L 373.5,-351.75 C 372.803,-351.731 372.301,-351.978 372,-352.5 Z" fill="#ffffff" stroke-width="0.541" stroke-opacity="0.341176" stroke-linejoin="miter" marker-start="none" marker-end="none" stroke-miterlimit="79.8403193612775"/>
     <path d="M 382.816,-366.792 C 382.934,-366.97 383.086,-367.117 383.268,-367.228 C 383.633,-367.451 384.061,-367.498 384.455,-367.498 L 385.045,-367.498 C 385.438,-367.498 385.866,-367.451 386.231,-367.228 C 386.322,-367.173 386.405,-367.108 386.481,-367.036 C 386.824,-366.563 387,-366.032 387,-364.714 L 387,-356.785 C 387,-355.434 386.808,-354.921 386.48,-354.462 C 386.404,-354.389 386.321,-354.325 386.23,-354.269 C 385.866,-354.046 385.437,-353.998 385.045,-353.998 L 384.455,-353.998 C 384.062,-353.998 383.633,-354.046 383.269,-354.269 C 383.087,-354.38 382.934,-354.527 382.816,-354.705 C 382.551,-355.105 382.5,-355.6 382.5,-356.061 L 382.5,-365.436 C 382.5,-365.897 382.551,-366.392 382.816,-366.792 Z M 373.499,-365.359 C 373.534,-365.929 373.656,-366.428 373.928,-366.798 L 374.005,-366.909 C 374.127,-367.057 374.274,-367.185 374.449,-367.286 C 375.183,-367.713 376.014,-367.449 376.674,-366.952 L 381.431,-362.787 L 381.648,-362.605 C 382.783,-361.547 382.783,-359.95 381.648,-358.892 L 381.431,-358.71 L 376.668,-354.542 C 376.013,-354.048 375.182,-353.784 374.448,-354.211 C 374.273,-354.313 374.126,-354.441 374.004,-354.589 L 373.927,-354.699 C 373.655,-355.377 373.562,-356.129 373.499,-356.89 L 373.499,-365.359 Z" stroke-width="0.5" fill="#000000" fill-rule="evenodd" marker-start="none" marker-end="none" stroke-miterlimit="79.8403193612775" fill-opacity="0.341176"/>
     <path d="M 386.25,-365.436 L 386.25,-356.061 C 386.25,-355.066 385.958,-354.748 385.045,-354.748 L 384.455,-354.748 C 383.542,-354.748 383.25,-355.066 383.25,-356.061 L 383.25,-365.436 C 383.25,-366.43 383.542,-366.748 384.455,-366.748 L 385.045,-366.748 C 385.958,-366.748 386.25,-366.43 386.25,-365.436 Z M 376.213,-366.36 L 380.938,-362.222 C 382.021,-361.408 382.021,-360.087 380.938,-359.273 L 376.213,-355.136 C 375.129,-354.321 374.25,-354.832 374.25,-356.275 L 374.251,-365.221 C 374.251,-366.664 375.13,-367.175 376.213,-366.36 Z" stroke-width="0.318" stroke-opacity="0.341176" stroke-linejoin="miter" marker-start="none" marker-end="none" stroke-miterlimit="79.8403193612775" fill="url(#LinearGradient_3)"/>
    </g>
   </g>
  </g>
 </g>
</svg>
