<?xml version="1.0" standalone="no"?>
<!DOCTYPE svg PUBLIC "-//W3C//DTD SVG 1.1//EN" "http://www.w3.org/Graphics/SVG/1.1/DTD/svg11.dtd">
<!--Generator: Xara Xtreme (www.xara.com), SVG filter version: 1.0.0.13-->
<svg stroke-width="0.501" stroke-linejoin="bevel" fill-rule="evenodd" xmlns:xlink="http://www.w3.org/1999/xlink" xmlns="http://www.w3.org/2000/svg" version="1.1" overflow="visible" width="996.75pt" height="933.75pt" viewBox="0 0 996.75 933.75">
 <defs>
  <marker id="DefaultArrow2" markerUnits="strokeWidth" viewBox="0 0 1 1" markerWidth="1" markerHeight="1" overflow="visible" orient="auto">
   <!-- REF_ARROW_STRAIGHT (-2) -->
   <g transform="scale(0.0092592592)">
    <!-- 1/108 -->
    <path d="M -9 54 L -9 -54 L 117 0 z"/>
   </g>
  </marker>
  <marker id="DefaultArrow3" markerUnits="strokeWidth" viewBox="0 0 1 1" markerWidth="1" markerHeight="1" overflow="visible" orient="auto">
   <!-- REF_ARROW_ANGLED -->
   <g transform="scale(0.0092592592)">
    <path d="M -27 54 L -9 0 L -27 -54 L 135 0 z"/>
   </g>
  </marker>
  <marker id="DefaultArrow4" markerUnits="strokeWidth" viewBox="0 0 1 1" markerWidth="1" markerHeight="1" overflow="visible" orient="auto">
   <!-- REF_ARROW_ROUNDED -->
   <g transform="scale(0.0092592592)">
    <path d="M -9,0 L -9,-45 C -9,-51.708 2.808,-56.580 9,-54 L 117,-9 C 120.916,-7.369 126.000,-4.242 126,0 C 126,4.242 120.916,7.369 117,9 L 9,54 C 2.808,56.580 -9,51.708 -9,45 z"/>
   </g>
  </marker>
  <marker id="DefaultArrow5" markerUnits="strokeWidth" viewBox="0 0 1 1" markerWidth="1" markerHeight="1" overflow="visible" orient="auto">
   <!-- REF_ARROW_SPOT -->
   <g transform="scale(0.0092592592)">
    <path d="M -54, 0 C -54,29.807 -29.807,54 0,54 C 29.807,54 54,29.807 54,0 C 54,-29.807 29.807,-54 0,-54 C -29.807,-54 -54,-29.807 -54,0 z"/>
   </g>
  </marker>
  <marker id="DefaultArrow6" markerUnits="strokeWidth" viewBox="0 0 1 1" markerWidth="1" markerHeight="1" overflow="visible" orient="auto">
   <!-- REF_ARROW_DIAMOND -->
   <g transform="scale(0.0092592592)">
    <path d="M -63,0 L 0,63 L 63,0 L 0,-63 z"/>
   </g>
  </marker>
  <marker id="DefaultArrow7" markerUnits="strokeWidth" viewBox="0 0 1 1" markerWidth="1" markerHeight="1" overflow="visible" orient="auto">
   <!-- REF_ARROW_FEATHER -->
   <g transform="scale(0.0092592592)">
    <path d="M 18,-54 L 108,-54 L 63,0 L 108,54 L 18, 54 L -36,0 z"/>
   </g>
  </marker>
  <marker id="DefaultArrow8" markerUnits="strokeWidth" viewBox="0 0 1 1" markerWidth="1" markerHeight="1" overflow="visible" orient="auto">
   <!-- REF_ARROW_FEATHER2 -->
   <g transform="scale(0.0092592592)">
    <path d="M -36,0 L 18,-54 L 54,-54 L 18,-18 L 27,-18 L 63,-54 L 99,-54 L 63,-18 L 72,-18 L 108,-54 L 144,-54 L 90,0 L 144,54 L 108,54 L 72,18 L 63,18 L 99,54 L 63,54 L 27,18 L 18,18 L 54,54 L 18,54 z"/>
   </g>
  </marker>
  <marker id="DefaultArrow9" markerUnits="strokeWidth" viewBox="0 0 1 1" markerWidth="1" markerHeight="1" overflow="visible" orient="auto">
   <!-- REF_ARROW_HOLLOWDIAMOND -->
   <g transform="scale(0.0092592592)">
    <path d="M 0,45 L -45,0 L 0, -45 L 45, 0 z M 0, 63 L-63, 0 L 0, -63 L 63, 0 z"/>
   </g>
  </marker>
  <filter id="StainedFilter">
   <feBlend mode="multiply" in2="BackgroundImage" in="SourceGraphic" result="blend"/>
   <feComposite in="blend" in2="SourceAlpha" operator="in" result="comp"/>
  </filter>
  <filter id="BleachFilter">
   <feBlend mode="screen" in2="BackgroundImage" in="SourceGraphic" result="blend"/>
   <feComposite in="blend" in2="SourceAlpha" operator="in" result="comp"/>
  </filter>
  <filter id="InvertTransparencyBitmapFilter">
   <feComponentTransfer>
    <feFuncR type="gamma" amplitude="1.055" exponent=".416666666" offset="-0.055"/>
    <feFuncG type="gamma" amplitude="1.055" exponent=".416666666" offset="-0.055"/>
    <feFuncB type="gamma" amplitude="1.055" exponent=".416666666" offset="-0.055"/>
   </feComponentTransfer>
   <feComponentTransfer>
    <feFuncR type="linear" slope="-1" intercept="1"/>
    <feFuncG type="linear" slope="-1" intercept="1"/>
    <feFuncB type="linear" slope="-1" intercept="1"/>
    <feFuncA type="linear" slope="1" intercept="0"/>
   </feComponentTransfer>
   <feComponentTransfer>
    <feFuncR type="gamma" amplitude="1" exponent="2.4" offset="0"/>
    <feFuncG type="gamma" amplitude="1" exponent="2.4" offset="0"/>
    <feFuncB type="gamma" amplitude="1" exponent="2.4" offset="0"/>
   </feComponentTransfer>
  </filter>
  <linearGradient id="LinearGradient" gradientUnits="userSpaceOnUse" x1="0" y1="0" x2="1.934" y2="-11.487" gradientTransform="translate(80.567 853.737)">
   <stop offset="0" stop-color="#3f9dd6"/>
   <stop offset="1" stop-color="#2287c0"/>
  </linearGradient>
  <linearGradient id="LinearGradient_1" gradientUnits="userSpaceOnUse" x1="0" y1="0" x2="14.234" y2="0" gradientTransform="translate(85.935 834.277) rotate(44.9972)">
   <stop offset="0" stop-color="#11cbda"/>
   <stop offset="1" stop-color="#2ca3ec"/>
  </linearGradient>
  <linearGradient id="LinearGradient_2" gradientUnits="userSpaceOnUse" x1="0" y1="0" x2="12" y2="-5.25" gradientTransform="translate(80.251 855.75)">
   <stop offset="0" stop-color="#2088be"/>
   <stop offset="1" stop-color="#8ac5eb"/>
  </linearGradient>
  <linearGradient id="LinearGradient_3" gradientUnits="userSpaceOnUse" x1="0" y1="0" x2="21.139" y2="0" gradientTransform="translate(77.381 859.611) rotate(-38.9421)">
   <stop offset="0" stop-color="#ffffff"/>
   <stop offset="1" stop-color="#000000"/>
  </linearGradient>
  <linearGradient id="LinearGradient_4" gradientUnits="userSpaceOnUse" x1="0" y1="0" x2="16.245" y2="0" gradientTransform="translate(87.278 850.381) rotate(-128.294)">
   <stop offset="0" stop-color="#ffffff"/>
   <stop offset="1" stop-color="#000000"/>
  </linearGradient>
  <linearGradient id="LinearGradient_5" gradientUnits="userSpaceOnUse" x1="0" y1="0" x2="0" y2="3.686" gradientTransform="translate(78.751 846.417)">
   <stop offset="0" stop-color="#ffffff"/>
   <stop offset="1" stop-color="#000000"/>
  </linearGradient>
  <linearGradient id="LinearGradient_6" gradientUnits="userSpaceOnUse" x1="0" y1="0" x2="18.809" y2="0" gradientTransform="translate(78.001 860.25) rotate(-85.4261)">
   <stop offset="0" stop-color="#ffffff"/>
   <stop offset="1" stop-color="#000000"/>
  </linearGradient>
 </defs>
 <g id="Document" fill="none" stroke="black" font-family="Times New Roman" font-size="16" transform="scale(1 -1)">
  <g id="Spread" transform="translate(0 -933.75)">
   <g id="icons">
    <g id="Group" stroke="none">
     <rect x="68.251" y="836.251" width="24" height="23.999" stroke-opacity="0.337255" stroke-width="0.516" stroke-linejoin="miter" stroke-miterlimit="79.8403193612775"/>
     <path d="M 82.501,843 L 82.501,846 L 77.251,846 C 76.9,846 76.74,845.909 76.668,845.839 C 76.6,845.773 76.501,845.619 76.501,845.25 L 76.501,843.75 C 76.501,843.336 76.164,843 75.751,843 L 71.251,843 C 70.837,843 70.501,843.336 70.501,843.75 L 70.501,845.25 C 70.501,848.196 72.974,851.25 76.501,851.25 L 82.501,851.25 L 82.501,854.25 C 82.501,854.663 82.837,855 83.251,855 L 84.001,855 C 84.199,855 84.39,854.92 84.531,854.78 L 89.781,849.53 C 89.921,849.389 90.001,849.198 90.001,849 L 90.001,848.29 C 90.001,848.092 89.922,847.902 89.783,847.761 L 84.533,842.471 C 84.392,842.329 84.2,842.25 84.001,842.25 L 83.251,842.25 C 82.837,842.25 82.501,842.586 82.501,843 Z" stroke-opacity="0.247059" stroke-width="0.5" fill="#000000" fill-rule="evenodd" marker-start="none" marker-end="none" stroke-miterlimit="79.8403193612775" fill-opacity="0.247059"/>
     <path d="M 82.501,843.75 L 82.501,846.75 L 77.251,846.75 C 76.9,846.75 76.74,846.659 76.668,846.589 C 76.6,846.523 76.501,846.369 76.501,846 L 76.501,844.5 C 76.501,844.086 76.164,843.75 75.751,843.75 L 71.251,843.75 C 70.837,843.75 70.501,844.086 70.501,844.5 L 70.501,846 C 70.501,848.946 72.974,852 76.501,852 L 82.501,852 L 82.501,855 C 82.501,855.413 82.837,855.75 83.251,855.75 L 84.001,855.75 C 84.199,855.75 84.39,855.67 84.531,855.53 L 89.781,850.28 C 89.921,850.139 90.001,849.948 90.001,849.75 L 90.001,849.04 C 90.001,848.842 89.922,848.652 89.783,848.511 L 84.533,843.221 C 84.392,843.079 84.2,843 84.001,843 L 83.251,843 C 82.837,843 82.501,843.336 82.501,843.75 Z" stroke-opacity="0.380392" stroke-width="0.5" fill="#000000" fill-rule="evenodd" marker-start="none" marker-end="none" stroke-miterlimit="79.8403193612775" fill-opacity="0.380392"/>
     <path d="M 89.251,849.75 L 84.001,855 L 83.251,855 L 83.251,851.25 L 76.501,851.25 C 73.433,851.25 71.251,848.578 71.251,846 L 71.251,844.5 L 75.751,844.5 L 75.751,846 C 75.751,847.008 76.305,847.5 77.251,847.5 L 83.251,847.5 L 83.251,843.75 L 84.001,843.75 L 89.251,849.04 L 89.251,849.75 Z" stroke-linejoin="miter" marker-start="none" marker-end="none" fill="url(#LinearGradient)"/>
     <path d="M 87.751,849 L 89.251,849 L 84.001,843.75 L 83.251,843.75 L 83.251,844.5 L 87.751,849 Z" stroke-width="0.448" stroke-opacity="0.337255" marker-start="none" marker-end="none" stroke-miterlimit="79.8403193612775" fill="url(#LinearGradient_1)"/>
     <path d="M 89.251,849.75 L 84.001,855 L 83.251,855 L 83.251,854.25 L 88.501,849 L 89.251,849 L 89.251,849.75 Z" stroke-linejoin="miter" marker-start="none" marker-end="none" fill="url(#LinearGradient_2)"/>
     <mask id="TranspMask">
      <rect x="-10%" y="-10%" width="120%" height="120%" fill="url(#LinearGradient_3)" stroke="none"/>
     </mask>
     <path d="M 84.001,850.5 L 84.001,851.25 L 76.501,851.25 C 74.119,851.167 72.691,849.912 71.71,848.11 C 72.743,849.557 74.188,850.531 76.501,850.5 L 84.001,850.5 Z" fill="#ffffff" stroke-width="0.448" stroke-opacity="0.337255" marker-start="none" marker-end="none" stroke-miterlimit="79.8403193612775" mask="url(#TranspMask)"/>
     <path d="M 84.001,850.5 L 84.001,855 L 83.251,855 L 83.251,850.5 L 84.001,850.5 Z" stroke-width="0.448" stroke-opacity="0.337255" fill="#ffffff" marker-start="none" marker-end="none" stroke-miterlimit="79.8403193612775"/>
     <mask id="TranspMask_1">
      <rect x="-10%" y="-10%" width="120%" height="120%" fill="url(#LinearGradient_4)" stroke="none"/>
     </mask>
     <path d="M 72.001,844.5 L 72.001,846.75 L 71.251,846.75 L 71.251,844.5 L 72.001,844.5 Z" stroke-width="0.448" stroke-opacity="0.337255" fill="#ffffff" marker-start="none" marker-end="none" stroke-miterlimit="79.8403193612775" mask="url(#TranspMask_1)"/>
     <mask id="TranspMask_2">
      <rect x="-10%" y="-10%" width="120%" height="120%" fill="url(#LinearGradient_5)" stroke="none"/>
     </mask>
     <path d="M 77.251,849 C 75.954,849 75.029,847.856 75.001,846 L 75.001,844.5 L 75.751,844.5 L 75.751,846 C 75.764,846.986 76.252,847.498 77.251,847.5 L 83.251,847.5 L 83.251,843.75 L 84.001,843.75 L 84.001,848.25 L 83.251,849 L 77.251,849 Z" fill="#13e1f2" stroke-width="0.448" stroke-opacity="0.337255" marker-start="none" marker-end="none" stroke-miterlimit="79.8403193612775" mask="url(#TranspMask_2)"/>
     <mask id="TranspMask_3">
      <rect x="-10%" y="-10%" width="120%" height="120%" fill="url(#LinearGradient_6)" stroke="none"/>
     </mask>
     <path d="M 89.251,849.75 L 76.501,849.75 C 74.241,849.75 72.556,848.641 72.001,846.75 L 71.251,846.75 C 71.857,849.173 73.295,850.924 76.501,851.25 L 83.251,851.25 L 83.251,855 L 84.001,855 L 89.251,849.75 Z" fill="#ffffff" stroke-linejoin="miter" marker-start="none" marker-end="none" mask="url(#TranspMask_3)"/>
    </g>
   </g>
  </g>
 </g>
</svg>
